<svg width="36" height="35" viewBox="0 0 36 35" fill="none" xmlns="http://www.w3.org/2000/svg">
<ellipse cx="18" cy="17.4757" rx="18" ry="17.4757" fill="#ED395A"/>
<path fill-rule="evenodd" clip-rule="evenodd" d="M12.9612 7.70927C12.9612 7.83592 12.9612 7.96257 13.0051 8.08922C9.44777 9.90456 7.69106 13.9574 9.14035 17.757L9.62343 19.0235C10.0626 20.29 10.2822 21.6831 10.1505 23.0341L9.97478 25.2716C9.97478 25.4115 9.94465 25.5224 9.90934 25.6523C9.90202 25.6793 9.89448 25.707 9.88694 25.736C9.84303 25.8204 9.84303 25.9471 9.88694 26.0315C10.6775 28.4379 20.2516 25.736 20.2516 25.736C20.2516 25.736 30.0013 22.5275 29.2108 20.0789L29.2108 20.0789C29.1669 19.9944 29.123 19.91 29.0351 19.8256L28.9473 19.7412L28.6838 19.4879L27.1906 17.757C26.2683 16.7015 25.5656 15.4772 25.1704 14.1685L24.7751 12.8598C23.6332 9.14465 19.9002 6.82271 16.0354 7.20266C15.8159 6.61162 15.2449 6.18945 14.5422 6.18945C13.6639 6.18945 12.9612 6.86493 12.9612 7.70927ZM18.4069 28.9443C17.3968 28.9443 16.5184 28.3532 16.1232 27.5511C18.4947 27.1712 20.6467 26.5801 20.6467 26.5801C20.6467 26.5801 20.7345 26.5379 20.9541 26.4535V26.4957C20.9541 27.8466 19.8123 28.9443 18.4069 28.9443Z" fill="white"/>
</svg>
